<?xml version="1.0" standalone="no"?>
<!DOCTYPE svg PUBLIC "-//W3C//DTD SVG 20010904//EN"
 "http://www.w3.org/TR/2001/REC-SVG-20010904/DTD/svg10.dtd">
<svg version="1.0" xmlns="http://www.w3.org/2000/svg"
 width="360.000000pt" height="360.000000pt" viewBox="0 0 360.000000 360.000000"
 preserveAspectRatio="xMidYMid meet">
<metadata>
Created by potrace 1.11, written by Peter Selinger 2001-2013
</metadata>
<g transform="translate(0.000000,360.000000) scale(0.100000,-0.100000)"
fill="#000000" stroke="none">
<path d="M721 3490 c-5 -3 -8 -162 -9 -355 0 -192 -1 -353 -1 -357 -1 -5 -161
-8 -356 -8 l-355 0 0 -362 0 -363 355 1 355 0 1 -40 c0 -23 1 -184 1 -358 0
-175 3 -318 7 -319 3 -1 166 -2 361 -3 l355 -1 5 360 5 360 358 0 357 0 0 363
0 362 -360 0 -360 0 0 360 c0 198 -3 361 -7 361 -27 4 -706 3 -712 -1z"/>
<path d="M2878 2763 c-2 -5 -3 -214 -3 -466 1 -410 -1 -458 -14 -453 -9 3 -50
17 -91 32 -77 27 -88 30 -155 42 -51 9 -217 9 -275 0 -377 -56 -678 -339 -755
-713 -74 -358 78 -727 385 -935 234 -158 550 -194 818 -94 86 32 87 32 88 14
1 -8 2 -21 3 -27 1 -10 80 -13 361 -13 l360 0 0 1310 0 1310 -359 0 c-198 0
-361 -3 -363 -7z"/>
</g>
</svg>
